docs/examples/08a_pcb_interposer_characterisation/data/pcb_multi_frequency_through_propagation_measurement/1/through_ch1ref_ch2pcb_3GHz_Ch2.csv

"Record Length",1000,"Points",-5.00000000e-010,-8.89687551e-002
"Sample Interval",1.00000000e-012,s,-4.99000000e-010,-8.86875050e-002
"Trigger Point",500,"Samples",-4.98000000e-010,-8.82656300e-002
"Trigger Time",1.50920962e-013,s,-4.97000000e-010,-8.76718800e-002
"",,,-4.96000000e-010,-8.69218800e-002
"Horizontal Offset",-5.00000000e-010,s,-4.95000000e-010,-8.60000050e-002
,,,-4.94000000e-010,-8.45781300e-002
,,,-4.93000000e-010,-8.29531300e-002
,,,-4.92000000e-010,-8.11406299e-002
,,,-4.91000000e-010,-7.91250049e-002
,,,-4.90000000e-010,-7.69218799e-002
,,,-4.89000000e-010,-7.45312548e-002
,,,-4.88000000e-010,-7.19843798e-002
,,,-4.87000000e-010,-6.92812548e-002
,,,-4.86000000e-010,-6.64218797e-002
,,,-4.85000000e-010,-6.34531297e-002
,,,-4.84000000e-010,-6.03593796e-002
,,,-4.83000000e-010,-5.71718796e-002
,,,-4.82000000e-010,-5.39062545e-002
,,,-4.81000000e-010,-5.05625045e-002
,,,-4.80000000e-010,-4.71875044e-002
,,,-4.79000000e-010,-4.37656294e-002
,,,-4.78000000e-010,-4.03281293e-002
,,,-4.77000000e-010,-3.68750043e-002
,,,-4.76000000e-010,-3.34375042e-002
,,,-4.75000000e-010,-3.00000042e-002
,,,-4.74000000e-010,-2.64218791e-002
,,,-4.73000000e-010,-2.28750041e-002
,,,-4.72000000e-010,-1.93750040e-002
,,,-4.71000000e-010,-1.59062540e-002
,,,-4.70000000e-010,-1.24843789e-002
,,,-4.69000000e-010,-9.09375386e-003
,,,-4.68000000e-010,-5.76562881e-003
,,,-4.67000000e-010,-2.46875376e-003
,,,-4.66000000e-010,7.81246286e-004
,,,-4.65000000e-010,3.98437133e-003
,,,-4.64000000e-010,7.14062138e-003
,,,-4.63000000e-010,1.02656214e-002
,,,-4.62000000e-010,1.33437465e-002
,,,-4.61000000e-010,1.63906215e-002
,,,-4.60000000e-010,1.94062466e-002
,,,-4.59000000e-010,2.23906216e-002
,,,-4.58000000e-010,2.53437467e-002
,,,-4.57000000e-010,2.82656217e-002
,,,-4.56000000e-010,3.11562467e-002
,,,-4.55000000e-010,3.39999968e-002
,,,-4.54000000e-010,3.67499968e-002
,,,-4.53000000e-010,3.94687469e-002
,,,-4.52000000e-010,4.21562469e-002
,,,-4.51000000e-010,4.47968719e-002
,,,-4.50000000e-010,4.73906220e-002
,,,-4.49000000e-010,4.99374970e-002
,,,-4.48000000e-010,5.24062471e-002
,,,-4.47000000e-010,5.48124971e-002
,,,-4.46000000e-010,5.71249971e-002
,,,-4.45000000e-010,5.93437472e-002
,,,-4.44000000e-010,6.14687472e-002
,,,-4.43000000e-010,6.34531222e-002
,,,-4.42000000e-010,6.53281222e-002
,,,-4.41000000e-010,6.70468723e-002
,,,-4.40000000e-010,6.86249973e-002
,,,-4.39000000e-010,7.00312473e-002
,,,-4.38000000e-010,7.12812473e-002
,,,-4.37000000e-010,7.23749974e-002
,,,-4.36000000e-010,7.32812474e-002
,,,-4.35000000e-010,7.39999974e-002
,,,-4.34000000e-010,7.43437474e-002
,,,-4.33000000e-010,7.45312474e-002
,,,-4.32000000e-010,7.46093724e-002
,,,-4.31000000e-010,7.45468724e-002
,,,-4.30000000e-010,7.43749974e-002
,,,-4.29000000e-010,7.41093724e-002
,,,-4.28000000e-010,7.37499974e-002
,,,-4.27000000e-010,7.33124974e-002
,,,-4.26000000e-010,7.28124974e-002
,,,-4.25000000e-010,7.22499974e-002
,,,-4.24000000e-010,7.16406223e-002
,,,-4.23000000e-010,7.09999973e-002
,,,-4.22000000e-010,7.03437473e-002
,,,-4.21000000e-010,6.96718723e-002
,,,-4.20000000e-010,6.89999973e-002
,,,-4.19000000e-010,6.83437473e-002
,,,-4.18000000e-010,6.77031223e-002
,,,-4.17000000e-010,6.70937473e-002
,,,-4.16000000e-010,6.65312473e-002
,,,-4.15000000e-010,6.59999973e-002
,,,-4.14000000e-010,6.52656222e-002
,,,-4.13000000e-010,6.46249972e-002
,,,-4.12000000e-010,6.40781222e-002
,,,-4.11000000e-010,6.36406222e-002
,,,-4.10000000e-010,6.33124972e-002
,,,-4.09000000e-010,6.30937472e-002
,,,-4.08000000e-010,6.29999972e-002
,,,-4.07000000e-010,6.29999972e-002
,,,-4.06000000e-010,6.31249972e-002
,,,-4.05000000e-010,6.33593722e-002
,,,-4.04000000e-010,6.36874972e-002
,,,-4.03000000e-010,6.41249972e-002
,,,-4.02000000e-010,6.46406222e-002
,,,-4.01000000e-010,6.52343722e-002
,,,-4.00000000e-010,6.59062473e-002
,,,-3.99000000e-010,6.66406223e-002
,,,-3.98000000e-010,6.74218723e-002
,,,-3.97000000e-010,6.82499973e-002
,,,-3.96000000e-010,6.91093723e-002
,,,-3.95000000e-010,6.99999973e-002
,,,-3.94000000e-010,7.04843723e-002
,,,-3.93000000e-010,7.09687473e-002
,,,-3.92000000e-010,7.14843723e-002
,,,-3.91000000e-010,7.19999973e-002
,,,-3.90000000e-010,7.25468724e-002
,,,-3.89000000e-010,7.30937474e-002
,,,-3.88000000e-010,7.36718724e-002
,,,-3.87000000e-010,7.42499974e-002
,,,-3.86000000e-010,7.48437474e-002
,,,-3.85000000e-010,7.54374974e-002
,,,-3.84000000e-010,7.60468724e-002
,,,-3.83000000e-010,7.66718724e-002
,,,-3.82000000e-010,7.73124974e-002
,,,-3.81000000e-010,7.79531224e-002
,,,-3.80000000e-010,7.86093724e-002
,,,-3.79000000e-010,7.92656225e-002
,,,-3.78000000e-010,7.99374975e-002
,,,-3.77000000e-010,8.06249975e-002
,,,-3.76000000e-010,8.13124975e-002
,,,-3.75000000e-010,8.19999975e-002
,,,-3.74000000e-010,8.22499975e-002
,,,-3.73000000e-010,8.24999975e-002
,,,-3.72000000e-010,8.27499975e-002
,,,-3.71000000e-010,8.30312475e-002
,,,-3.70000000e-010,8.33281225e-002
,,,-3.69000000e-010,8.36718725e-002
,,,-3.68000000e-010,8.40468725e-002
,,,-3.67000000e-010,8.44687475e-002
,,,-3.66000000e-010,8.49374975e-002
,,,-3.65000000e-010,8.54531225e-002
,,,-3.64000000e-010,8.60468726e-002
,,,-3.63000000e-010,8.66874976e-002
,,,-3.62000000e-010,8.73906226e-002
,,,-3.61000000e-010,8.81718726e-002
,,,-3.60000000e-010,8.89999976e-002
,,,-3.59000000e-010,8.98906226e-002
,,,-3.58000000e-010,9.08593726e-002
,,,-3.57000000e-010,9.18593726e-002
,,,-3.56000000e-010,9.29218727e-002
,,,-3.55000000e-010,9.39999977e-002
,,,-3.54000000e-010,9.47343727e-002
,,,-3.53000000e-010,9.54687477e-002
,,,-3.52000000e-010,9.62031227e-002
,,,-3.51000000e-010,9.69374977e-002
,,,-3.50000000e-010,9.76562477e-002
,,,-3.49000000e-010,9.83593727e-002
,,,-3.48000000e-010,9.90312478e-002
,,,-3.47000000e-010,9.96718728e-002
,,,-3.46000000e-010,1.00281248e-001
,,,-3.45000000e-010,1.00859373e-001
,,,-3.44000000e-010,1.01359373e-001
,,,-3.43000000e-010,1.01812498e-001
,,,-3.42000000e-010,1.02187498e-001
,,,-3.41000000e-010,1.02499998e-001
,,,-3.40000000e-010,1.02703123e-001
,,,-3.39000000e-010,1.02812498e-001
,,,-3.38000000e-010,1.02796873e-001
,,,-3.37000000e-010,1.02671873e-001
,,,-3.36000000e-010,1.02406248e-001
,,,-3.35000000e-010,1.01999998e-001
,,,-3.34000000e-010,1.01109373e-001
,,,-3.33000000e-010,1.00046873e-001
,,,-3.32000000e-010,9.88124977e-002
,,,-3.31000000e-010,9.73906227e-002
,,,-3.30000000e-010,9.58124977e-002
,,,-3.29000000e-010,9.40468727e-002
,,,-3.28000000e-010,9.21249976e-002
,,,-3.27000000e-010,9.00312476e-002
,,,-3.26000000e-010,8.77812476e-002
,,,-3.25000000e-010,8.53749975e-002
,,,-3.24000000e-010,8.28124975e-002
,,,-3.23000000e-010,8.01093725e-002
,,,-3.22000000e-010,7.72656224e-002
,,,-3.21000000e-010,7.42968724e-002
,,,-3.20000000e-010,7.11874973e-002
,,,-3.19000000e-010,6.79687473e-002
,,,-3.18000000e-010,6.46249972e-002
,,,-3.17000000e-010,6.11874972e-002
,,,-3.16000000e-010,5.76406221e-002
,,,-3.15000000e-010,5.39999971e-002
,,,-3.14000000e-010,5.00937470e-002
,,,-3.13000000e-010,4.61093720e-002
,,,-3.12000000e-010,4.20624969e-002
,,,-3.11000000e-010,3.79687468e-002
,,,-3.10000000e-010,3.38281218e-002
,,,-3.09000000e-010,2.96718717e-002
,,,-3.08000000e-010,2.54999967e-002
,,,-3.07000000e-010,2.13124966e-002
,,,-3.06000000e-010,1.71406215e-002
,,,-3.05000000e-010,1.29687465e-002
,,,-3.04000000e-010,8.82812141e-003
,,,-3.03000000e-010,4.71874635e-003
,,,-3.02000000e-010,6.40621284e-004
,,,-3.01000000e-010,-3.37500378e-003
,,,-3.00000000e-010,-7.34375383e-003
,,,-2.99000000e-010,-1.12343789e-002
,,,-2.98000000e-010,-1.50468789e-002
,,,-2.97000000e-010,-1.87968790e-002
,,,-2.96000000e-010,-2.24375041e-002
,,,-2.95000000e-010,-2.60000041e-002
,,,-2.94000000e-010,-2.93750042e-002
,,,-2.93000000e-010,-3.26562542e-002
,,,-2.92000000e-010,-3.58437543e-002
,,,-2.91000000e-010,-3.88906293e-002
,,,-2.90000000e-010,-4.18437543e-002
,,,-2.89000000e-010,-4.46718794e-002
,,,-2.88000000e-010,-4.73593794e-002
,,,-2.87000000e-010,-4.99375045e-002
,,,-2.86000000e-010,-5.23906295e-002
,,,-2.85000000e-010,-5.47031295e-002
,,,-2.84000000e-010,-5.68750046e-002
,,,-2.83000000e-010,-5.89062546e-002
,,,-2.82000000e-010,-6.07968796e-002
,,,-2.81000000e-010,-6.25468797e-002
,,,-2.80000000e-010,-6.41562547e-002
,,,-2.79000000e-010,-6.56093797e-002
,,,-2.78000000e-010,-6.69218797e-002
,,,-2.77000000e-010,-6.80937547e-002
,,,-2.76000000e-010,-6.91093798e-002
,,,-2.75000000e-010,-7.00000048e-002
,,,-2.74000000e-010,-7.05000048e-002
,,,-2.73000000e-010,-7.09062548e-002
,,,-2.72000000e-010,-7.12031298e-002
,,,-2.71000000e-010,-7.13906298e-002
,,,-2.70000000e-010,-7.15000048e-002
,,,-2.69000000e-010,-7.15312548e-002
,,,-2.68000000e-010,-7.14843798e-002
,,,-2.67000000e-010,-7.13593798e-002
,,,-2.66000000e-010,-7.11718798e-002
,,,-2.65000000e-010,-7.09218798e-002
,,,-2.64000000e-010,-7.06093798e-002
,,,-2.63000000e-010,-7.02500048e-002
,,,-2.62000000e-010,-6.98437548e-002
,,,-2.61000000e-010,-6.94062548e-002
,,,-2.60000000e-010,-6.89062548e-002
,,,-2.59000000e-010,-6.83750047e-002
,,,-2.58000000e-010,-6.78125047e-002
,,,-2.57000000e-010,-6.72343797e-002
,,,-2.56000000e-010,-6.66250047e-002
,,,-2.55000000e-010,-6.60000047e-002
,,,-2.54000000e-010,-6.50781297e-002
,,,-2.53000000e-010,-6.41875047e-002
,,,-2.52000000e-010,-6.33437547e-002
,,,-2.51000000e-010,-6.25312547e-002
,,,-2.50000000e-010,-6.17812546e-002
,,,-2.49000000e-010,-6.10781296e-002
,,,-2.48000000e-010,-6.04218796e-002
,,,-2.47000000e-010,-5.98437546e-002
,,,-2.46000000e-010,-5.93281296e-002
,,,-2.45000000e-010,-5.88750046e-002
,,,-2.44000000e-010,-5.84843796e-002
,,,-2.43000000e-010,-5.81718796e-002
,,,-2.42000000e-010,-5.79218796e-002
,,,-2.41000000e-010,-5.77500046e-002
,,,-2.40000000e-010,-5.76250046e-002
,,,-2.39000000e-010,-5.75781296e-002
,,,-2.38000000e-010,-5.75937546e-002
,,,-2.37000000e-010,-5.76562546e-002
,,,-2.36000000e-010,-5.77968796e-002
,,,-2.35000000e-010,-5.80000046e-002
,,,-2.34000000e-010,-5.78906296e-002
,,,-2.33000000e-010,-5.78593796e-002
,,,-2.32000000e-010,-5.79218796e-002
,,,-2.31000000e-010,-5.80468796e-002
,,,-2.30000000e-010,-5.82656296e-002
,,,-2.29000000e-010,-5.85781296e-002
,,,-2.28000000e-010,-5.89531296e-002
,,,-2.27000000e-010,-5.94218796e-002
,,,-2.26000000e-010,-5.99531296e-002
,,,-2.25000000e-010,-6.05781296e-002
,,,-2.24000000e-010,-6.12656296e-002
,,,-2.23000000e-010,-6.20156296e-002
,,,-2.22000000e-010,-6.28437547e-002
,,,-2.21000000e-010,-6.37343797e-002
,,,-2.20000000e-010,-6.46718797e-002
,,,-2.19000000e-010,-6.56562547e-002
,,,-2.18000000e-010,-6.66875047e-002
,,,-2.17000000e-010,-6.77656297e-002
,,,-2.16000000e-010,-6.88593798e-002
,,,-2.15000000e-010,-7.00000048e-002
,,,-2.14000000e-010,-7.07187548e-002
,,,-2.13000000e-010,-7.14375048e-002
,,,-2.12000000e-010,-7.21875048e-002
,,,-2.11000000e-010,-7.29375048e-002
,,,-2.10000000e-010,-7.37031298e-002
,,,-2.09000000e-010,-7.44843798e-002
,,,-2.08000000e-010,-7.52812548e-002
,,,-2.07000000e-010,-7.60781299e-002
,,,-2.06000000e-010,-7.68906299e-002
,,,-2.05000000e-010,-7.77187549e-002
,,,-2.04000000e-010,-7.85468799e-002
,,,-2.03000000e-010,-7.93906299e-002
,,,-2.02000000e-010,-8.02187549e-002
,,,-2.01000000e-010,-8.10781299e-002
,,,-2.00000000e-010,-8.19218799e-002
,,,-1.99000000e-010,-8.27500050e-002
,,,-1.98000000e-010,-8.35937550e-002
,,,-1.97000000e-010,-8.44062550e-002
,,,-1.96000000e-010,-8.52187550e-002
,,,-1.95000000e-010,-8.60000050e-002
,,,-1.94000000e-010,-8.63593800e-002
,,,-1.93000000e-010,-8.66875050e-002
,,,-1.92000000e-010,-8.69531300e-002
,,,-1.91000000e-010,-8.71875050e-002
,,,-1.90000000e-010,-8.73750050e-002
,,,-1.89000000e-010,-8.75312550e-002
,,,-1.88000000e-010,-8.76406300e-002
,,,-1.87000000e-010,-8.77031300e-002
,,,-1.86000000e-010,-8.77500050e-002
,,,-1.85000000e-010,-8.77500050e-002
,,,-1.84000000e-010,-8.77187550e-002
,,,-1.83000000e-010,-8.76562550e-002
,,,-1.82000000e-010,-8.75625050e-002
,,,-1.81000000e-010,-8.74375050e-002
,,,-1.80000000e-010,-8.72812550e-002
,,,-1.79000000e-010,-8.71093800e-002
,,,-1.78000000e-010,-8.68750050e-002
,,,-1.77000000e-010,-8.66250050e-002
,,,-1.76000000e-010,-8.63281300e-002
,,,-1.75000000e-010,-8.60000050e-002
,,,-1.74000000e-010,-8.53125050e-002
,,,-1.73000000e-010,-8.45625050e-002
,,,-1.72000000e-010,-8.37500050e-002
,,,-1.71000000e-010,-8.28750050e-002
,,,-1.70000000e-010,-8.19531299e-002
,,,-1.69000000e-010,-8.09687549e-002
,,,-1.68000000e-010,-7.99218799e-002
,,,-1.67000000e-010,-7.88437549e-002
,,,-1.66000000e-010,-7.77031299e-002
,,,-1.65000000e-010,-7.65000049e-002
,,,-1.64000000e-010,-7.52656298e-002
,,,-1.63000000e-010,-7.39843798e-002
,,,-1.62000000e-010,-7.26562548e-002
,,,-1.61000000e-010,-7.12812548e-002
,,,-1.60000000e-010,-6.98593798e-002
,,,-1.59000000e-010,-6.83906297e-002
,,,-1.58000000e-010,-6.68750047e-002
,,,-1.57000000e-010,-6.53125047e-002
,,,-1.56000000e-010,-6.36718797e-002
,,,-1.55000000e-010,-6.20000046e-002
,,,-1.54000000e-010,-6.00000046e-002
,,,-1.53000000e-010,-5.79218796e-002
,,,-1.52000000e-010,-5.57812546e-002
,,,-1.51000000e-010,-5.35625045e-002
,,,-1.50000000e-010,-5.12812545e-002
,,,-1.49000000e-010,-4.89218795e-002
,,,-1.48000000e-010,-4.65000044e-002
,,,-1.47000000e-010,-4.40156294e-002
,,,-1.46000000e-010,-4.14687543e-002
,,,-1.45000000e-010,-3.88593793e-002
,,,-1.44000000e-010,-3.62031293e-002
,,,-1.43000000e-010,-3.34687542e-002
,,,-1.42000000e-010,-3.06875042e-002
,,,-1.41000000e-010,-2.78593791e-002
,,,-1.40000000e-010,-2.49843791e-002
,,,-1.39000000e-010,-2.20625041e-002
,,,-1.38000000e-010,-1.91093790e-002
,,,-1.37000000e-010,-1.61093790e-002
,,,-1.36000000e-010,-1.30625039e-002
,,,-1.35000000e-010,-1.00000039e-002
,,,-1.34000000e-010,-6.81250383e-003
,,,-1.33000000e-010,-3.59375378e-003
,,,-1.32000000e-010,-3.75003731e-004
,,,-1.31000000e-010,2.85937132e-003
,,,-1.30000000e-010,6.10937137e-003
,,,-1.29000000e-010,9.34374641e-003
,,,-1.28000000e-010,1.25781215e-002
,,,-1.27000000e-010,1.57968715e-002
,,,-1.26000000e-010,1.89843716e-002
,,,-1.25000000e-010,2.21406216e-002
,,,-1.24000000e-010,2.52499967e-002
,,,-1.23000000e-010,2.83124967e-002
,,,-1.22000000e-010,3.13124967e-002
,,,-1.21000000e-010,3.42499968e-002
,,,-1.20000000e-010,3.71093718e-002
,,,-1.19000000e-010,3.98906219e-002
,,,-1.18000000e-010,4.25781219e-002
,,,-1.17000000e-010,4.51562469e-002
,,,-1.16000000e-010,4.76406220e-002
,,,-1.15000000e-010,4.99999970e-002
,,,-1.14000000e-010,5.21249971e-002
,,,-1.13000000e-010,5.41406221e-002
,,,-1.12000000e-010,5.60468721e-002
,,,-1.11000000e-010,5.78281221e-002
,,,-1.10000000e-010,5.94999972e-002
,,,-1.09000000e-010,6.10468722e-002
,,,-1.08000000e-010,6.24843722e-002
,,,-1.07000000e-010,6.37968722e-002
,,,-1.06000000e-010,6.49843722e-002
,,,-1.05000000e-010,6.60312473e-002
,,,-1.04000000e-010,6.69687473e-002
,,,-1.03000000e-010,6.77812473e-002
,,,-1.02000000e-010,6.84687473e-002
,,,-1.01000000e-010,6.90312473e-002
,,,-1.00000000e-010,6.94687473e-002
,,,-9.90000000e-011,6.97968723e-002
,,,-9.80000000e-011,6.99999973e-002
,,,-9.70000000e-011,7.01093723e-002
,,,-9.60000000e-011,7.01093723e-002
,,,-9.50000000e-011,6.99999973e-002
,,,-9.40000000e-011,6.95937473e-002
,,,-9.30000000e-011,6.91406223e-002
,,,-9.20000000e-011,6.86562473e-002
,,,-9.10000000e-011,6.81562473e-002
,,,-9.00000000e-011,6.76562473e-002
,,,-8.90000000e-011,6.71718723e-002
,,,-8.80000000e-011,6.67031223e-002
,,,-8.70000000e-011,6.62499973e-002
,,,-8.60000000e-011,6.58593723e-002
,,,-8.50000000e-011,6.54999973e-002
,,,-8.40000000e-011,6.52187472e-002
,,,-8.30000000e-011,6.49843722e-002
,,,-8.20000000e-011,6.48281222e-002
,,,-8.10000000e-011,6.47499972e-002
,,,-8.00000000e-011,6.47499972e-002
,,,-7.90000000e-011,6.48281222e-002
,,,-7.80000000e-011,6.49999972e-002
,,,-7.70000000e-011,6.52499972e-002
,,,-7.60000000e-011,6.55937473e-002
,,,-7.50000000e-011,6.59999973e-002
,,,-7.40000000e-011,6.62031223e-002
,,,-7.30000000e-011,6.64999973e-002
,,,-7.20000000e-011,6.68906223e-002
,,,-7.10000000e-011,6.73749973e-002
,,,-7.00000000e-011,6.79531223e-002
,,,-6.90000000e-011,6.86249973e-002
,,,-6.80000000e-011,6.93749973e-002
,,,-6.70000000e-011,7.01874973e-002
,,,-6.60000000e-011,7.10781223e-002
,,,-6.50000000e-011,7.20156223e-002
,,,-6.40000000e-011,7.29843724e-002
,,,-6.30000000e-011,7.39999974e-002
,,,-6.20000000e-011,7.50468724e-002
,,,-6.10000000e-011,7.60937474e-002
,,,-6.00000000e-011,7.71406224e-002
,,,-5.90000000e-011,7.81718724e-002
,,,-5.80000000e-011,7.91874975e-002
,,,-5.70000000e-011,8.01718725e-002
,,,-5.60000000e-011,8.11093725e-002
,,,-5.50000000e-011,8.19999975e-002
,,,-5.40000000e-011,8.23906225e-002
,,,-5.30000000e-011,8.27343725e-002
,,,-5.20000000e-011,8.30156225e-002
,,,-5.10000000e-011,8.32656225e-002
,,,-5.00000000e-011,8.34687475e-002
,,,-4.90000000e-011,8.36249975e-002
,,,-4.80000000e-011,8.37656225e-002
,,,-4.70000000e-011,8.38906225e-002
,,,-4.60000000e-011,8.39843725e-002
,,,-4.50000000e-011,8.40781225e-002
,,,-4.40000000e-011,8.41718725e-002
,,,-4.30000000e-011,8.42656225e-002
,,,-4.20000000e-011,8.43749975e-002
,,,-4.10000000e-011,8.45156225e-002
,,,-4.00000000e-011,8.46718725e-002
,,,-3.90000000e-011,8.48593725e-002
,,,-3.80000000e-011,8.50937475e-002
,,,-3.70000000e-011,8.53437475e-002
,,,-3.60000000e-011,8.56562476e-002
,,,-3.50000000e-011,8.59999976e-002
,,,-3.40000000e-011,8.59687476e-002
,,,-3.30000000e-011,8.59843726e-002
,,,-3.20000000e-011,8.60312476e-002
,,,-3.10000000e-011,8.61249976e-002
,,,-3.00000000e-011,8.62812476e-002
,,,-2.90000000e-011,8.64999976e-002
,,,-2.80000000e-011,8.67656226e-002
,,,-2.70000000e-011,8.70781226e-002
,,,-2.60000000e-011,8.74687476e-002
,,,-2.50000000e-011,8.78906226e-002
,,,-2.40000000e-011,8.83749976e-002
,,,-2.30000000e-011,8.89062476e-002
,,,-2.20000000e-011,8.94687476e-002
,,,-2.10000000e-011,9.00781226e-002
,,,-2.00000000e-011,9.07031226e-002
,,,-1.90000000e-011,9.13593726e-002
,,,-1.80000000e-011,9.20312476e-002
,,,-1.70000000e-011,9.27031227e-002
,,,-1.60000000e-011,9.33593727e-002
,,,-1.50000000e-011,9.39999977e-002
,,,-1.40000000e-011,9.42499977e-002
,,,-1.30000000e-011,9.44531227e-002
,,,-1.20000000e-011,9.45781227e-002
,,,-1.10000000e-011,9.46562477e-002
,,,-1.00000000e-011,9.46718727e-002
,,,-9.00000000e-012,9.46093727e-002
,,,-8.00000000e-012,9.44843727e-002
,,,-7.00000000e-012,9.42968727e-002
,,,-6.00000000e-012,9.40312477e-002
,,,-5.00000000e-012,9.37031227e-002
,,,-4.00000000e-012,9.32968727e-002
,,,-3.00000000e-012,9.28124977e-002
,,,-2.00000000e-012,9.22656226e-002
,,,-1.00000000e-012,9.16249976e-002
,,,0.00000000e+000,9.09062476e-002
,,,1.00000000e-012,9.01093726e-002
,,,2.00000000e-012,8.92343726e-002
,,,3.00000000e-012,8.82499976e-002
,,,4.00000000e-012,8.71874976e-002
,,,5.00000000e-012,8.59999976e-002
,,,6.00000000e-012,8.44062475e-002
,,,7.00000000e-012,8.26718725e-002
,,,8.00000000e-012,8.08281225e-002
,,,9.00000000e-012,7.88749975e-002
,,,1.00000000e-011,7.67968724e-002
,,,1.10000000e-011,7.46093724e-002
,,,1.20000000e-011,7.23124974e-002
,,,1.30000000e-011,6.99062473e-002
,,,1.40000000e-011,6.73906223e-002
,,,1.50000000e-011,6.47812472e-002
,,,1.60000000e-011,6.20781222e-002
,,,1.70000000e-011,5.92656222e-002
,,,1.80000000e-011,5.63749971e-002
,,,1.90000000e-011,5.34062471e-002
,,,2.00000000e-011,5.03437470e-002
,,,2.10000000e-011,4.72187470e-002
,,,2.20000000e-011,4.39999969e-002
,,,2.30000000e-011,4.07343719e-002
,,,2.40000000e-011,3.74062468e-002
,,,2.50000000e-011,3.39999968e-002
,,,2.60000000e-011,3.04218717e-002
,,,2.70000000e-011,2.67968717e-002
,,,2.80000000e-011,2.31249966e-002
,,,2.90000000e-011,1.94531216e-002
,,,3.00000000e-011,1.57656215e-002
,,,3.10000000e-011,1.20624965e-002
,,,3.20000000e-011,8.39062140e-003
,,,3.30000000e-011,4.71874635e-003
,,,3.40000000e-011,1.09374629e-003
,,,3.50000000e-011,-2.50000376e-003
,,,3.60000000e-011,-6.03125382e-003
,,,3.70000000e-011,-9.51562887e-003
,,,3.80000000e-011,-1.29062539e-002
,,,3.90000000e-011,-1.62343790e-002
,,,4.00000000e-011,-1.94687540e-002
,,,4.10000000e-011,-2.25937541e-002
,,,4.20000000e-011,-2.56250041e-002
,,,4.30000000e-011,-2.85312542e-002
,,,4.40000000e-011,-3.13281292e-002
,,,4.50000000e-011,-3.40000042e-002
